com/example/trailerbase/TrailerBase$1.class
com/example/trailerbase/MovieRequestOrBuilder.class
com/example/trailerbase/MovieResponse.class
com/example/trailerbase/TrailerBase.class
com/example/trailerbase/MovieResponseOrBuilder.class
com/example/trailerbase/MovieServiceGrpc.class
com/example/trailerbase/MovieServiceGrpc$MovieServiceBlockingStub.class
com/example/trailerbase/MovieServiceGrpc$MovieServiceFutureStub.class
com/example/trailerbase/Movie$Builder.class
com/example/trailerbase/MovieServiceGrpc$MethodHandlers.class
com/example/trailerbase/MovieServiceGrpc$MovieServiceStub.class
com/example/gateway/gateway/MovieServiceConsumer.class
com/example/trailerbase/Movie$1.class
com/example/trailerbase/MovieServiceGrpc$MovieServiceDescriptorSupplier.class
com/example/trailerbase/MovieServiceGrpc$MovieServiceImplBase.class
com/example/trailerbase/Movie.class
com/example/trailerbase/MovieRequest$Builder.class
com/example/trailerbase/MovieResponse$1.class
com/example/trailerbase/MovieRequest$1.class
com/example/trailerbase/MovieOrBuilder.class
com/example/gateway/gateway/MovieController.class
com/example/trailerbase/MovieRequest.class
com/example/trailerbase/MovieServiceGrpc$1.class
com/example/trailerbase/MovieResponse$Builder.class
com/example/gateway/gateway/GatewayApplication.class
